<?xml version="1.0" encoding="utf-8"?>
<!-- Generator: Adobe Illustrator 22.1.0, SVG Export Plug-In . SVG Version: 6.00 Build 0)  -->
<svg version="1.1" id="Layer_1" xmlns="http://www.w3.org/2000/svg" xmlns:xlink="http://www.w3.org/1999/xlink" x="0px" y="0px"
	 viewBox="0 0 382.7 382.7" style="enable-background:new 0 0 382.7 382.7;" xml:space="preserve">
<style type="text/css">
	.st0{enable-background:new    ;}
	.st1{fill:#3A4045;}
	.st2{fill:#FFFFFF;}
	.st3{fill:#2B97D3;}
</style>
<g class="st0">
	<path class="st1" d="M89.3,284.7l4,0l6.4,29.8l-3.9,0l-1.4-7.5h-6.1l-1.4,7.5H83L89.3,284.7z M93.9,304.1l-2.5-13.4l-2.5,13.4H93.9
		z"/>
	<path class="st1" d="M103.8,312.3c-1.2-1.8-1.8-4.2-1.8-7.3l0-10.5c0-3.3,0.6-5.7,1.8-7.4c1.2-1.7,3.3-2.5,6.3-2.5
		c2.7,0,4.6,0.7,5.8,2.2c1.2,1.5,1.7,3.6,1.7,6.4l0,2.4h-3.9l0-2.1c0-1.4-0.1-2.4-0.2-3.2c-0.1-0.7-0.4-1.3-0.9-1.8
		c-0.5-0.4-1.3-0.7-2.4-0.7c-1.1,0-2,0.2-2.5,0.7c-0.6,0.5-0.9,1.1-1.1,2c-0.2,0.8-0.3,2-0.3,3.4l0,11.8c0,1.5,0.1,2.7,0.4,3.6
		c0.2,0.9,0.6,1.5,1.2,1.8c0.6,0.4,1.3,0.6,2.3,0.6c1.1,0,1.8-0.2,2.4-0.7c0.5-0.5,0.8-1.1,1-1.9c0.1-0.8,0.2-1.9,0.2-3.3l0-2.2
		l3.9,0l0,2.2c0,3-0.6,5.3-1.7,6.8c-1.1,1.6-3.1,2.4-5.8,2.4C107.1,314.9,105,314,103.8,312.3z"/>
	<path class="st1" d="M122.8,312.3c-1.2-1.8-1.8-4.2-1.8-7.3l0-10.5c0-3.3,0.6-5.7,1.8-7.4c1.2-1.7,3.3-2.5,6.3-2.5
		c2.7,0,4.6,0.7,5.8,2.2c1.2,1.5,1.7,3.6,1.7,6.4l0,2.4h-3.9l0-2.1c0-1.4-0.1-2.4-0.2-3.2c-0.1-0.7-0.4-1.3-0.9-1.8
		c-0.5-0.4-1.3-0.7-2.4-0.7c-1.1,0-2,0.2-2.5,0.7c-0.6,0.5-0.9,1.1-1.1,2c-0.2,0.8-0.3,2-0.3,3.4l0,11.8c0,1.5,0.1,2.7,0.4,3.6
		c0.2,0.9,0.6,1.5,1.2,1.8c0.6,0.4,1.3,0.6,2.3,0.6c1.1,0,1.8-0.2,2.4-0.7c0.5-0.5,0.8-1.1,1-1.9c0.1-0.8,0.2-1.9,0.2-3.3l0-2.2
		l3.9,0l0,2.2c0,3-0.6,5.3-1.7,6.8c-1.1,1.6-3.1,2.4-5.8,2.4C126.1,314.9,124,314,122.8,312.3z"/>
	<path class="st1" d="M141.9,312.4c-1.3-1.7-1.9-4.1-1.9-7.2l0-11.3c0-3.1,0.6-5.4,1.9-7c1.3-1.6,3.4-2.4,6.3-2.4
		c2.9,0,5,0.8,6.2,2.4c1.3,1.6,1.9,3.9,1.9,7l0,11.3c0,3.1-0.6,5.5-1.9,7.1c-1.3,1.7-3.4,2.5-6.2,2.5
		C145.2,314.9,143.2,314.1,141.9,312.4z M151.3,310.3c0.5-0.9,0.8-2.3,0.8-4.1l0-13.1c0-1.8-0.3-3.2-0.8-4c-0.5-0.9-1.6-1.3-3.1-1.3
		c-1.6,0-2.6,0.4-3.2,1.3c-0.5,0.9-0.8,2.2-0.8,4l0,13.1c0,1.8,0.3,3.2,0.8,4.1c0.5,0.9,1.6,1.4,3.2,1.4
		C149.7,311.6,150.8,311.2,151.3,310.3z"/>
	<path class="st1" d="M160.9,284.7h4.1l5.3,24.2l5.3-24.2l4.1,0l0.6,29.8h-3.4l-0.3-21.7l-5,21.7h-2.4l-5-21.7l-0.3,21.7l-3.4,0
		L160.9,284.7z"/>
	<path class="st1" d="M186.1,312.4c-1.3-1.7-1.9-4.1-1.9-7.2l0-11.3c0-3.1,0.6-5.4,1.9-7c1.3-1.6,3.4-2.4,6.3-2.4
		c2.9,0,5,0.8,6.2,2.4c1.3,1.6,1.9,3.9,1.9,7l0,11.3c0,3.1-0.6,5.5-1.9,7.1c-1.3,1.7-3.4,2.5-6.2,2.5
		C189.4,314.9,187.3,314.1,186.1,312.4z M195.5,310.3c0.5-0.9,0.8-2.3,0.8-4.1l0-13.1c0-1.8-0.3-3.2-0.8-4c-0.5-0.9-1.6-1.3-3.1-1.3
		c-1.6,0-2.6,0.4-3.2,1.3c-0.5,0.9-0.8,2.2-0.8,4l0,13.1c0,1.8,0.3,3.2,0.8,4.1c0.5,0.9,1.6,1.4,3.2,1.4
		C193.9,311.6,194.9,311.2,195.5,310.3z"/>
	<path class="st1" d="M204.6,284.7l6.5,0c3.2,0,5.5,0.7,6.8,2.2c1.3,1.5,2,3.8,2,6.9l0,11c0,3.3-0.7,5.7-2,7.4
		c-1.3,1.6-3.5,2.4-6.5,2.4l-6.8,0L204.6,284.7z M211.1,311.6c1.4,0,2.5-0.3,3.1-0.8c0.7-0.6,1.1-1.3,1.2-2.3c0.2-1,0.2-2.4,0.2-4.4
		l0-9.7c0-1.7-0.1-3-0.3-3.9c-0.2-0.9-0.6-1.6-1.3-2s-1.7-0.6-3.1-0.6l-2.2,0l0,23.8L211.1,311.6z"/>
	<path class="st1" d="M228.7,284.7h4l6.4,29.8l-3.9,0l-1.4-7.5h-6.1l-1.4,7.5h-3.9L228.7,284.7z M233.2,304.1l-2.5-13.4l-2.5,13.4
		H233.2z"/>
	<path class="st1" d="M244.2,287.8h-5l0-3.1l14.1,0l0,3.1h-4.9l0,26.7l-4.2,0L244.2,287.8z"/>
	<path class="st1" d="M256.4,284.7h4.1l0,29.8l-4.1,0L256.4,284.7z"/>
	<path class="st1" d="M266.6,312.4c-1.3-1.7-1.9-4.1-1.9-7.2l0-11.3c0-3.1,0.6-5.4,1.9-7c1.3-1.6,3.4-2.4,6.3-2.4
		c2.9,0,5,0.8,6.2,2.4c1.3,1.6,1.9,3.9,1.9,7l0,11.3c0,3.1-0.6,5.5-1.9,7.1c-1.3,1.7-3.4,2.5-6.2,2.5
		C270,314.9,267.9,314.1,266.6,312.4z M276.1,310.3c0.5-0.9,0.8-2.3,0.8-4.1l0-13.1c0-1.8-0.3-3.2-0.8-4c-0.5-0.9-1.6-1.3-3.1-1.3
		c-1.6,0-2.6,0.4-3.2,1.3c-0.5,0.9-0.8,2.2-0.8,4l0,13.1c0,1.8,0.3,3.2,0.8,4.1c0.5,0.9,1.6,1.4,3.2,1.4
		C274.5,311.6,275.5,311.2,276.1,310.3z"/>
	<path class="st1" d="M285.2,284.7h2.8l8.5,19.8l0-19.8h3.5l0,29.8h-2.7l-8.6-20.4l0,20.4l-3.5,0L285.2,284.7z"/>
</g>
<rect x="119.9" y="169.6" class="st2" width="147.2" height="27"/>
<path class="st3" d="M260.7,155.6v14.1c-2.3-1.6-5.1-2.5-8.1-2.5h-86.1v-1.9c0-7.5-6.1-13.5-13.5-13.5h-17
	c-7.5,0-13.5,6.1-13.5,13.5v3c-0.9,0.4-1.8,0.8-2.6,1.4v-25.9h-6.4v37.9v5v3.7v6.3V213h6.4v-13.2h140.9V213h6.4v-16.4v-6.3v-3.7v-5
	v-26H260.7z M128,173.5h38.5h86.1c4.5,0,8.1,3.7,8.1,8.1v1.8H119.9v-1.8C119.9,177.1,123.5,173.5,128,173.5z"/>
<g id="Layer_2_1_">
</g>
</svg>
