<?xml version="1.0" encoding="utf-8"?>
<!-- Generator: Adobe Illustrator 22.1.0, SVG Export Plug-In . SVG Version: 6.00 Build 0)  -->
<svg version="1.1" id="Layer_1" xmlns="http://www.w3.org/2000/svg" xmlns:xlink="http://www.w3.org/1999/xlink" x="0px" y="0px"
	 viewBox="0 0 382.7 382.7" style="enable-background:new 0 0 382.7 382.7;" xml:space="preserve">
<style type="text/css">
	.st0{fill:#2B97D3;}
	.st1{fill:#3A4045;}
	.st2{enable-background:new    ;}
</style>
<g>
	<path class="st0" d="M241.3,227.8c3,3,8,3,11,0s3-8,0-11L184,148.4c3.7-9.1,1-20.9-7.5-29.5c-16.5-16.5-37.2-22.4-46.3-13.3
		s-3.1,29.8,13.3,46.3c8.5,8.5,20.4,11.2,29.5,7.5L241.3,227.8z"/>
	<path class="st1" d="M132.6,216.8c-3,3-3,8,0,11s8,3,11,0l44.2-44.2l-11-11L132.6,216.8z"/>
	<path class="st1" d="M213.4,158.1c3.5,3.5,9.1,3.5,12.6,0l32.2-32.2c1.3-1.3,1.3-3.4,0-4.7c-1.3-1.3-3.4-1.3-4.7,0L233,141.6
		c-1.3,1.3-3.4,1.3-4.7,0s-1.3-3.4,0-4.7l20.4-20.4c1.3-1.3,1.3-3.4,0-4.7c-1.3-1.3-3.4-1.3-4.7,0l-20.4,20.4
		c-1.3,1.3-3.4,1.3-4.7,0s-1.3-3.4,0-4.7l20.4-20.4c1.3-1.3,1.3-3.4,0-4.7c-1.3-1.3-3.4-1.3-4.7,0l-32.2,32.2
		c-3.5,3.5-3.5,9.1,0,12.6l-5.2,5.2l11,11L213.4,158.1z"/>
</g>
<g class="st2">
	<path class="st1" d="M91.1,285.3h11.3v2.9h-7.2v9.8h5.6v2.9h-5.6v13.7h-4.1V285.3z"/>
	<path class="st1" d="M106.6,312.5c-1.2-1.6-1.9-4-1.9-7.1v-11.1c0-3,0.6-5.3,1.9-6.9c1.3-1.6,3.3-2.4,6.2-2.4
		c2.8,0,4.9,0.8,6.1,2.4s1.9,3.9,1.9,6.9v11.1c0,3-0.6,5.4-1.9,7c-1.3,1.6-3.3,2.5-6.1,2.5C109.9,314.9,107.8,314.1,106.6,312.5z
		 M115.8,310.3c0.5-0.9,0.8-2.2,0.8-4.1v-12.9c0-1.8-0.3-3.1-0.8-4c-0.5-0.9-1.6-1.3-3.1-1.3c-1.5,0-2.6,0.4-3.1,1.3
		c-0.5,0.9-0.8,2.2-0.8,4v12.9c0,1.8,0.3,3.2,0.8,4.1c0.5,0.9,1.6,1.3,3.1,1.3C114.2,311.7,115.3,311.2,115.8,310.3z"/>
	<path class="st1" d="M126.1,312.5c-1.2-1.6-1.9-4-1.9-7.1v-11.1c0-3,0.6-5.3,1.9-6.9c1.3-1.6,3.3-2.4,6.2-2.4
		c2.8,0,4.9,0.8,6.1,2.4c1.2,1.6,1.9,3.9,1.9,6.9v11.1c0,3-0.6,5.4-1.9,7c-1.3,1.6-3.3,2.5-6.1,2.5
		C129.4,314.9,127.3,314.1,126.1,312.5z M135.3,310.3c0.5-0.9,0.8-2.2,0.8-4.1v-12.9c0-1.8-0.3-3.1-0.8-4c-0.5-0.9-1.6-1.3-3.1-1.3
		c-1.5,0-2.6,0.4-3.1,1.3c-0.5,0.9-0.8,2.2-0.8,4v12.9c0,1.8,0.3,3.2,0.8,4.1c0.5,0.9,1.6,1.3,3.1,1.3
		C133.8,311.7,134.8,311.2,135.3,310.3z"/>
	<path class="st1" d="M144.3,285.3h6.4c3.2,0,5.4,0.7,6.7,2.2c1.3,1.4,2,3.7,2,6.8V305c0,3.2-0.6,5.6-1.9,7.2
		c-1.3,1.6-3.4,2.4-6.4,2.4h-6.7V285.3z M150.7,311.6c1.4,0,2.5-0.3,3.1-0.8c0.6-0.6,1-1.3,1.2-2.3c0.2-1,0.2-2.4,0.2-4.3v-9.5
		c0-1.7-0.1-2.9-0.3-3.8c-0.2-0.9-0.6-1.5-1.3-2c-0.7-0.4-1.7-0.6-3-0.6h-2.2v23.3H150.7z"/>
	<path class="st1" d="M173.1,313.1c-1.1-1.2-1.7-2.8-1.7-4.8c0-1.7,0.4-3.3,1.1-4.6c0.8-1.4,1.8-2.6,3.1-3.9l-0.8-1.5
		c-0.8-1.4-1.4-2.6-1.8-3.6c-0.4-1-0.6-2.1-0.6-3.2c0-2,0.6-3.5,1.7-4.7c1.1-1.2,2.6-1.8,4.6-1.8c1.8,0,3.3,0.5,4.5,1.5
		c1.2,1,1.8,2.3,1.8,4c0,1.7-0.5,3.4-1.6,4.9c-1,1.6-2.4,3.1-3.9,4.7l4.4,7c0.7-1.4,1.2-3.3,1.4-5.9h3.8c0,1.4-0.3,2.8-0.9,4.4
		c-0.6,1.6-1.2,2.9-2,3.9c0.3,0.4,0.8,0.8,1.3,1.1c0.5,0.3,1,0.4,1.6,0.4v4h-0.5c-0.7,0-1.2-0.1-1.8-0.4c-0.5-0.3-1-0.6-1.3-0.9
		c-0.3-0.3-0.9-0.8-1.6-1.5c-0.7,0.9-1.6,1.6-2.6,2.1c-1.1,0.5-2.3,0.8-3.7,0.8C175.8,314.9,174.2,314.3,173.1,313.1z M181.7,309.5
		l-4.5-6.9c-0.6,0.7-1,1.6-1.4,2.6c-0.3,1-0.5,2-0.5,3.1c0,1,0.2,1.8,0.6,2.4c0.4,0.6,1,1,1.9,1C179.2,311.7,180.6,311,181.7,309.5z
		 M180.3,294.4c0.6-1.4,0.9-2.7,0.9-4c0-0.7-0.2-1.2-0.6-1.6c-0.4-0.4-1-0.6-1.7-0.6c-0.8,0-1.4,0.3-1.8,1c-0.4,0.6-0.6,1.4-0.6,2.3
		c0,1,0.2,2,0.5,3.1c0.3,1,0.7,2.2,1.3,3.4C179,297,179.7,295.8,180.3,294.4z"/>
	<path class="st1" d="M201.8,285.3h6.4c3.2,0,5.4,0.7,6.7,2.2c1.3,1.4,2,3.7,2,6.8V305c0,3.2-0.6,5.6-1.9,7.2
		c-1.3,1.6-3.4,2.4-6.4,2.4h-6.7V285.3z M208.2,311.6c1.4,0,2.5-0.3,3.1-0.8s1-1.3,1.2-2.3s0.2-2.4,0.2-4.3v-9.5
		c0-1.7-0.1-2.9-0.3-3.8c-0.2-0.9-0.6-1.5-1.3-2c-0.7-0.4-1.7-0.6-3-0.6h-2.2v23.3H208.2z"/>
	<path class="st1" d="M220.9,285.3h5.9c3,0,5.1,0.6,6.5,1.8c1.4,1.2,2.1,3.2,2.1,6c0,3.8-1.2,6-3.6,6.8l4.2,14.7H232l-3.8-13.8H225
		v13.8h-4.1V285.3z M226.6,297.9c1.8,0,3-0.3,3.8-1c0.8-0.7,1.1-2,1.1-3.8c0-1.2-0.1-2.2-0.4-2.8c-0.3-0.7-0.7-1.2-1.4-1.5
		c-0.7-0.3-1.6-0.5-2.9-0.5H225v9.7H226.6z"/>
	<path class="st1" d="M239.9,285.3h4v29.3h-4V285.3z"/>
	<path class="st1" d="M248.7,285.3h2.8l8.3,19.5v-19.5h3.4v29.3h-2.6l-8.4-20v20h-3.5V285.3z"/>
	<path class="st1" d="M267.8,285.3h4.1v13.8l6.7-13.8h3.8l-5.8,12.9l6.7,16.4h-4l-5.6-13.8l-1.9,3.4v10.4h-4.1V285.3z"/>
	<path class="st1" d="M287,312.6c-1.3-1.5-2-3.6-2.2-6.3l3.6-1c0.1,1.9,0.5,3.4,1.1,4.6c0.6,1.2,1.6,1.7,3.1,1.7
		c1.1,0,1.9-0.3,2.4-0.9c0.5-0.6,0.8-1.4,0.8-2.6c0-1.2-0.3-2.2-0.8-3c-0.5-0.8-1.3-1.7-2.4-2.6l-4.9-4.3c-1-0.9-1.7-1.8-2.2-2.8
		c-0.4-1-0.7-2.2-0.7-3.7c0-2.1,0.6-3.8,1.8-5c1.2-1.2,2.9-1.8,5-1.8c2.3,0,4.1,0.6,5.2,1.8c1.2,1.2,1.9,3.1,2.1,5.7l-3.5,0.9
		c-0.1-1.7-0.5-3-1-4c-0.5-0.9-1.5-1.4-2.9-1.4c-1,0-1.8,0.3-2.4,0.8c-0.6,0.5-0.8,1.3-0.8,2.4c0,0.9,0.1,1.6,0.4,2.2
		s0.8,1.2,1.5,1.8l5,4.3c1.3,1.1,2.3,2.4,3.1,3.7c0.8,1.3,1.1,2.8,1.1,4.5c0,2.1-0.7,3.8-2,5.1c-1.3,1.3-3,1.9-5.1,1.9
		C290.2,314.9,288.3,314.1,287,312.6z"/>
</g>
</svg>
