<?xml version="1.0" encoding="utf-8"?>
<!-- Generator: Adobe Illustrator 22.1.0, SVG Export Plug-In . SVG Version: 6.00 Build 0)  -->
<svg version="1.1" id="Layer_1" xmlns="http://www.w3.org/2000/svg" xmlns:xlink="http://www.w3.org/1999/xlink" x="0px" y="0px"
	 viewBox="0 0 382.7 382.7" style="enable-background:new 0 0 382.7 382.7;" xml:space="preserve">
<style type="text/css">
	.st0{enable-background:new    ;}
	.st1{fill:#3A4045;}
	.st2{fill:#2B96D3;}
	.st3{fill:#E7F9FF;}
</style>
<g class="st0">
	<path class="st1" d="M78.4,288.1h7c2.4,0,4.2,0.7,5.3,2c1.1,1.3,1.6,3.2,1.6,5.8c0,2.3-0.6,4.1-1.8,5.3c-1.2,1.3-2.9,1.9-5.1,1.9
		h-3.1v13h-3.9V288.1z M84.2,300.3c1.2,0,2-0.1,2.7-0.4c0.6-0.3,1.1-0.7,1.4-1.3c0.3-0.6,0.4-1.5,0.4-2.7c0-1.4-0.1-2.5-0.3-3.2
		c-0.2-0.7-0.6-1.1-1.2-1.4c-0.6-0.3-1.6-0.4-2.9-0.4h-1.8v9.4H84.2z"/>
	<path class="st1" d="M96.3,314.1c-1.2-1.6-1.8-3.8-1.8-6.8v-10.6c0-2.9,0.6-5.1,1.8-6.6c1.2-1.5,3.2-2.2,5.9-2.2
		c2.7,0,4.7,0.8,5.9,2.3c1.2,1.5,1.8,3.7,1.8,6.6v10.7c0,2.9-0.6,5.1-1.8,6.7c-1.2,1.6-3.1,2.4-5.8,2.4
		C99.5,316.4,97.5,315.6,96.3,314.1z M105.2,312.1c0.5-0.9,0.8-2.1,0.8-3.9v-12.3c0-1.7-0.3-3-0.8-3.8c-0.5-0.8-1.5-1.2-2.9-1.2
		c-1.5,0-2.5,0.4-3,1.2c-0.5,0.8-0.8,2.1-0.8,3.8v12.3c0,1.7,0.3,3,0.8,3.9c0.5,0.9,1.5,1.3,3,1.3
		C103.7,313.3,104.7,312.9,105.2,312.1z"/>
	<path class="st1" d="M115,314.1c-1.2-1.6-1.8-3.8-1.8-6.8v-10.6c0-2.9,0.6-5.1,1.8-6.6c1.2-1.5,3.2-2.2,5.9-2.2
		c2.7,0,4.7,0.8,5.9,2.3c1.2,1.5,1.8,3.7,1.8,6.6v10.7c0,2.9-0.6,5.1-1.8,6.7c-1.2,1.6-3.1,2.4-5.8,2.4
		C118.1,316.4,116.2,315.6,115,314.1z M123.8,312.1c0.5-0.9,0.8-2.1,0.8-3.9v-12.3c0-1.7-0.3-3-0.8-3.8c-0.5-0.8-1.5-1.2-2.9-1.2
		c-1.5,0-2.5,0.4-3,1.2c-0.5,0.8-0.8,2.1-0.8,3.8v12.3c0,1.7,0.3,3,0.8,3.9c0.5,0.9,1.5,1.3,3,1.3
		C122.3,313.3,123.3,312.9,123.8,312.1z"/>
	<path class="st1" d="M132.4,288.1h3.9v25.2h7.2v2.8h-11.1V288.1z"/>
	<path class="st1" d="M147.3,314.2c-1.2-1.5-1.9-3.4-2.1-6l3.5-0.9c0.1,1.8,0.5,3.3,1.1,4.4c0.6,1.1,1.6,1.7,2.9,1.7
		c1,0,1.8-0.3,2.3-0.8c0.5-0.6,0.8-1.4,0.8-2.4c0-1.2-0.2-2.1-0.7-2.9c-0.5-0.8-1.3-1.6-2.3-2.5l-4.7-4.2c-0.9-0.8-1.6-1.7-2.1-2.7
		c-0.4-1-0.6-2.1-0.6-3.5c0-2.1,0.6-3.6,1.8-4.8c1.2-1.1,2.8-1.7,4.8-1.7c2.2,0,3.9,0.6,5,1.8c1.1,1.2,1.8,3,2,5.5l-3.3,0.9
		c-0.1-1.6-0.4-2.9-1-3.8c-0.5-0.9-1.4-1.3-2.8-1.3c-1,0-1.8,0.3-2.3,0.8c-0.5,0.5-0.8,1.3-0.8,2.3c0,0.8,0.1,1.5,0.4,2.1
		c0.3,0.6,0.7,1.1,1.4,1.7l4.7,4.2c1.2,1.1,2.2,2.3,2.9,3.5c0.7,1.3,1.1,2.7,1.1,4.3c0,2.1-0.6,3.7-1.9,4.9
		c-1.2,1.2-2.9,1.8-4.8,1.8C150.4,316.4,148.6,315.7,147.3,314.2z"/>
	<path class="st1" d="M171.8,314.7c-1.1-1.2-1.6-2.7-1.6-4.6c0-1.6,0.4-3.1,1.1-4.4c0.7-1.3,1.7-2.5,3-3.7l-0.8-1.4
		c-0.7-1.3-1.3-2.5-1.7-3.5c-0.4-1-0.6-2-0.6-3.1c0-1.9,0.5-3.4,1.6-4.5c1.1-1.1,2.5-1.7,4.4-1.7c1.7,0,3.2,0.5,4.3,1.4
		c1.1,0.9,1.7,2.2,1.7,3.8c0,1.6-0.5,3.2-1.5,4.7c-1,1.5-2.3,3-3.8,4.4l4.2,6.6c0.7-1.3,1.1-3.2,1.4-5.6h3.7c0,1.3-0.3,2.7-0.8,4.2
		c-0.5,1.5-1.2,2.7-1.9,3.8c0.3,0.4,0.7,0.8,1.2,1c0.5,0.3,1,0.4,1.5,0.4v3.8h-0.5c-0.6,0-1.2-0.1-1.7-0.4c-0.5-0.3-0.9-0.6-1.3-0.8
		c-0.3-0.3-0.8-0.8-1.5-1.4c-0.7,0.8-1.5,1.5-2.5,2s-2.2,0.7-3.5,0.7C174.4,316.4,172.9,315.8,171.8,314.7z M180.1,311.3l-4.3-6.6
		c-0.6,0.7-1,1.6-1.3,2.5c-0.3,1-0.5,2-0.5,2.9c0,0.9,0.2,1.7,0.6,2.3c0.4,0.6,1,0.9,1.8,0.9C177.7,313.3,179,312.7,180.1,311.3z
		 M178.7,296.8c0.6-1.3,0.8-2.6,0.8-3.8c0-0.7-0.2-1.2-0.6-1.6c-0.4-0.4-1-0.6-1.6-0.6c-0.8,0-1.4,0.3-1.7,0.9
		c-0.4,0.6-0.6,1.4-0.6,2.2c0,1,0.1,1.9,0.5,2.9c0.3,1,0.7,2.1,1.2,3.2C177.5,299.3,178.1,298.1,178.7,296.8z"/>
	<path class="st1" d="M199.3,288.1h6.4c2.5,0,4.4,0.6,5.6,1.7c1.2,1.1,1.8,2.9,1.8,5.3c0,3.6-1.3,5.5-4,5.9c1.7,0.4,2.9,1.2,3.6,2.3
		c0.8,1.2,1.1,2.8,1.1,4.8c0,2.5-0.6,4.5-1.8,5.9c-1.2,1.4-3,2.1-5.4,2.1h-7.5V288.1z M205.5,299.8c1.6,0,2.7-0.4,3.4-1.1
		s0.9-1.9,0.9-3.6c0-1.2-0.2-2.2-0.6-2.8c-0.4-0.6-1-1-1.7-1.1c-0.8-0.2-1.9-0.2-3.4-0.2h-0.9v8.8H205.5z M205.8,313.3
		c1.2,0,2-0.2,2.7-0.5c0.6-0.4,1.1-0.9,1.3-1.6c0.3-0.7,0.4-1.7,0.4-3c0-1.8-0.4-3.1-1.1-4c-0.7-0.9-1.9-1.3-3.6-1.3h-2.3v10.6
		H205.8z"/>
	<path class="st1" d="M217.4,288.1h10.9v2.9h-7v9.3h5.6v2.8h-5.6v10.3h7v2.8h-10.9V288.1z"/>
	<path class="st1" d="M236,288.1h3.8l6,28H242l-1.3-7.1H235l-1.3,7.1H230L236,288.1z M240.2,306.2l-2.4-12.6l-2.3,12.6H240.2z"/>
	<path class="st1" d="M249.6,313.9c-1.1-1.6-1.7-3.9-1.7-6.8v-9.9c0-3.1,0.6-5.4,1.7-7c1.1-1.6,3.1-2.4,5.9-2.4c2.5,0,4.3,0.7,5.4,2
		c1.1,1.4,1.6,3.4,1.6,6v2.2h-3.7v-2c0-1.3-0.1-2.3-0.2-3c-0.1-0.7-0.4-1.2-0.9-1.7c-0.5-0.4-1.2-0.6-2.3-0.6
		c-1.1,0-1.9,0.2-2.4,0.7c-0.5,0.4-0.9,1.1-1,1.9c-0.2,0.8-0.2,1.9-0.2,3.2v11.1c0,1.4,0.1,2.5,0.3,3.4c0.2,0.8,0.6,1.4,1.1,1.7
		c0.5,0.3,1.2,0.5,2.2,0.5c1,0,1.7-0.2,2.2-0.7c0.5-0.4,0.8-1,0.9-1.8c0.1-0.8,0.2-1.8,0.2-3.1v-2.1h3.7v2.1c0,2.8-0.5,4.9-1.6,6.4
		c-1.1,1.5-2.9,2.2-5.5,2.2C252.7,316.4,250.7,315.6,249.6,313.9z"/>
	<path class="st1" d="M266.2,288.1h3.9v12.1h7.2v-12.1h3.9v28h-3.9V303h-7.2v13.1h-3.9V288.1z"/>
	<path class="st1" d="M285.7,288.1h10.9v2.9h-7v9.3h5.6v2.8h-5.6v10.3h7v2.8h-10.9V288.1z"/>
	<path class="st1" d="M301,314.2c-1.2-1.5-1.9-3.4-2.1-6l3.5-0.9c0.1,1.8,0.5,3.3,1.1,4.4s1.6,1.7,2.9,1.7c1,0,1.8-0.3,2.3-0.8
		c0.5-0.6,0.8-1.4,0.8-2.4c0-1.2-0.2-2.1-0.7-2.9c-0.5-0.8-1.3-1.6-2.3-2.5l-4.7-4.2c-0.9-0.8-1.6-1.7-2.1-2.7
		c-0.4-1-0.6-2.1-0.6-3.5c0-2.1,0.6-3.6,1.8-4.8c1.2-1.1,2.8-1.7,4.8-1.7c2.2,0,3.9,0.6,5,1.8c1.1,1.2,1.8,3,2,5.5l-3.3,0.9
		c-0.1-1.6-0.4-2.9-1-3.8c-0.5-0.9-1.4-1.3-2.8-1.3c-1,0-1.8,0.3-2.3,0.8c-0.5,0.5-0.8,1.3-0.8,2.3c0,0.8,0.1,1.5,0.4,2.1
		c0.3,0.6,0.7,1.1,1.4,1.7l4.7,4.2c1.2,1.1,2.2,2.3,2.9,3.5c0.7,1.3,1.1,2.7,1.1,4.3c0,2.1-0.6,3.7-1.9,4.9
		c-1.2,1.2-2.9,1.8-4.8,1.8C304,316.4,302.2,315.7,301,314.2z"/>
</g>
<path class="st2" d="M132.6,228.3c0.1,0.5,0.2,1.6,0.5,1.6c36.7,0,73.5,0,110.2,0c0.2-2,1.2-3-0.3-3.9c-1.1-0.7-2.5-0.9-3.7-1.2
	c0-3.8-0.3-4.4-3.8-5.6c-6.9-2.6-13.7-5.1-20.6-7.8c-3.6-1.5-6.9-1.1-10.2,0.8c-4.1,2.3-8.1,4.4-12.2,6.8c-3.2,1.9-6,1.8-9.2,0
	c-5.5-3.2-11-6.3-16.5-9.5c-1.1-0.7-2.3-1.2-3.4-1.9l-2-1.1c-0.3-0.1-0.6-0.3-0.8-0.5c-5.3-3-10.7-6.1-16-9.1
	c-0.8-0.5-1.5-0.9-2.3-1.2c-1.6-0.7-3.4,0-4.3,1.4c-0.9,1.5-0.7,3.4,0.6,4.5c0.6,0.6,1.2,0.9,1.9,1.2c3.2,1.8,6.2,3.5,9.3,5.3
	c0.6,0.3,1.1,0.8,1.4,1c-1.2,1.6-2.6,2.8-3.5,4.4c-2,3.2-3.9,6.4-5.9,9.7c-0.8,1.5-1.8,2.1-3.5,2c-1.2-0.1-2.5-0.1-3.7,0.1
	C133,225.4,132.4,226.6,132.6,228.3z M198.8,223.1c2.6-1.5,5.2-2.7,7.9-4.2c2.8-1.6,5.7-1.7,8.9-0.3c3.8,1.7,7.9,3.3,11.8,4.8
	c0.7,0.2,1.4,0.1,2,0.5c0,0.1-0.1,0-0.1,0c-10.5,0-20.9,0-31.7,0C198,223.8,198.3,223.4,198.8,223.1z M155.1,210.5
	c7.8,4.4,15.5,8.6,23.3,12.9c0,0.2-0.1,0.3-0.1,0.3c-10.4,0-20.7,0-31.1,0C147.6,223.8,152.5,213.8,155.1,210.5z"/>
<path class="st1" d="M146.9,192.2c-0.2,3.4,2.3,6.2,5.6,6.4c3.3,0.2,6.1-2.4,6.3-5.7c0.2-3.3-2.5-6.2-5.7-6.3
	C149.9,186.5,147.1,188.9,146.9,192.2z"/>
<path class="st2" d="M244.5,177.4c0.5,0,0.9-0.1,1.2-0.2c1-0.5,1.8-1.6,1.8-2.7c0-30.8-25.1-55.9-55.9-55.9s-55.9,25.1-55.9,55.9
	c0,1.1,0.7,2.3,1.8,2.7c1,0.5,2.4,0.3,3.3-0.5c0,0,5.5-4.6,12-4.6c3.7,0,7,1.5,10,4.5c0.6,0.6,1.4,1,2.1,0.9c0.8,0,1.6-0.3,2.1-0.9
	c0,0,5.3-5.2,11.8-5.2c3.5,0,6.1,1.5,10.1,4.4v28.9c0,0.1,0.7,0.2,1,0.2c0.9,0,1.9-0.2,2.9-0.8c0.7-0.3,2-0.6,2-0.8v-27.5
	c2-2.8,6.3-4.3,9.8-4.3c6.5,0,11.5,5.1,11.6,5.2c0.6,0.6,1.2,0.9,2.1,0.9c0.8,0,1.6-0.3,2.1-0.9c2.9-2.9,6.3-4.5,10-4.5
	c6.4,0,11.9,4.6,12,4.6C243,177,243.8,177.4,244.5,177.4z M142,168.6c2.3-20,16.5-36.6,35.4-42.1c4.2-3.9,9-6.1,14.2-6.1
	c1.4,0,2.6,0.1,3.8,0.5c-1.2-0.2-2.5-0.5-3.7-0.5c-5.2,0-9.8,2.3-14,6.1c0,0,0,0-0.1,0c-8.6,8-14.7,23.2-15.9,41.4
	c0,0-0.1,0-0.1-0.1c-2.8-1.5-5.7-2.1-9-2.1C148.5,165.8,144.8,167.1,142,168.6z M167.6,168.6C167.6,168.6,167.6,168.5,167.6,168.6
	c0,1.7-0.2,3.3-0.2,5.1C167.4,171.7,167.5,170.3,167.6,168.6z M178.8,165.2c-4.3,0-8.1,1.1-10.9,2.8c1.5-21.2,9-38.5,21-41.2v6.6
	v34.7C184.8,166.2,182.2,165.2,178.8,165.2z M204.6,165.1c-3.5,0-7.8,1.1-9.8,3v-34.7v-6.6c10,2.8,19.2,20.1,20.7,41.4l-0.1-0.1
	C212.6,166.4,209,165.1,204.6,165.1z M221.5,168.2L221.5,168.2c0.1,1.9,0.2,3.5,0.2,5.4C221.6,171.7,221.6,170,221.5,168.2z
	 M230.5,165.9c-3.2,0-6.2,0.5-9,1.9c-1.1-18.1-7-33.3-15.5-41.3c18.8,5.6,32.9,22.1,35.2,42.1C238.3,167.2,234.6,165.9,230.5,165.9z
	"/>
<path class="st1" d="M193.5,205.8c-1.4,0.6-2.5,0.9-3.7,0.9c-1.4,0-2.7-0.5-4.2-1.2c-5.7-3.4-11.6-6.9-17.4-10
	c-1.1-0.7-2.5-1.7-3.2-1.7h-0.1c-3.6,0-5.9,2.6-5.9,5.6c0,2.4,1.4,4.1,3.3,5.2c6.9,3.8,13.6,7.7,20.4,11.6c1.5,0.8,2.8,1.4,4.3,1.4
	c1.4,0,2.7-0.3,4.2-1.2c4.5-2.6,9.1-5.1,13.6-7.5c1.6-0.9,3.2-1.4,4.8-1.4c1.4,0,2.7,0.3,4.1,0.9c5.5,2.4,11,4.5,16.7,6.6
	c0.9,0.3,1.8,0.7,2.8,0.7c0.1,0,0.1,0,0.2,0c1.4,0,2.5-0.9,2.9-2.1c0.5-1.5,0-3-1.1-3.9c-0.6-0.3-1.2-0.6-1.8-0.9
	c-6.6-2.6-13.4-5-20-7.7c-1.6-0.7-3-0.9-4.5-0.9c-1.8,0-3.4,0.5-5.1,1.2c-2.9,1.4-6.9,2.6-8.9,3.9v0.6h-1
	C193.7,205.8,193.6,205.8,193.5,205.8z"/>
<path class="st3" d="M193.8,205.6h0.7v-0.3C194.3,205.4,194.1,205.5,193.8,205.6z"/>
<g id="Layer_2_1_">
</g>
</svg>
