<?xml version="1.0" encoding="utf-8"?>
<!-- Generator: Adobe Illustrator 22.1.0, SVG Export Plug-In . SVG Version: 6.00 Build 0)  -->
<svg version="1.1" id="Layer_1" xmlns="http://www.w3.org/2000/svg" xmlns:xlink="http://www.w3.org/1999/xlink" x="0px" y="0px"
	 viewBox="0 0 460 124" style="enable-background:new 0 0 460 124;" xml:space="preserve">
<style type="text/css">
	.st0{fill:#FFFFFF;}
	.st1{fill:#FF9100;stroke:#FF9100;stroke-width:0.5;stroke-miterlimit:10;}
</style>
<path class="st0" d="M50.5,38.2h11.3v2.7c1.5-1.7,3-3,4.7-3.7c1.7-0.8,3.6-1.1,5.7-1.1c3.2,0,6.2,0.7,8.8,2c2.6,1.3,4.9,3.1,6.9,5.3
	c2-2.2,4.5-4,7.3-5.3c2.9-1.3,5.9-2,9.1-2c3,0,5.8,0.6,8.4,1.7c2.6,1.1,4.9,2.7,6.9,4.7c1.9,2,3.5,4.3,4.6,6.9
	c1.1,2.6,1.7,5.5,1.7,8.4l0.1,28.1h-11.3l-0.1-28.1c0-1.4-0.3-2.7-0.8-4c-0.5-1.3-1.3-2.4-2.2-3.3s-2.1-1.7-3.3-2.3
	c-1.3-0.6-2.6-0.9-4-0.9c-1.5,0-2.8,0.3-4.1,0.9C99,48.7,98,49.5,97,50.5s-1.7,2.1-2.2,3.3c-0.5,1.3-0.8,2.6-0.8,4L94,85.9H82.8
	l-0.1-28.1c0-1.5-0.3-2.8-0.8-4.1c-0.5-1.3-1.3-2.4-2.2-3.3c-1-1-2.1-1.7-3.4-2.2c-1.3-0.5-2.7-0.8-4.1-0.8c-1.5,0-2.8,0.3-4.1,0.9
	c-1.2,0.6-2.3,1.4-3.3,2.3c-1,1-1.7,2.1-2.2,3.4c-0.5,1.3-0.8,2.6-0.8,3.9l0.1,28.1H50.6L50.5,38.2z"/>
<path class="st0" d="M130.8,62c0-3.6,0.7-7,2.1-10.2c1.4-3.1,3.2-5.9,5.6-8.2c2.4-2.3,5.1-4.2,8.3-5.5c3.1-1.4,6.5-2.1,10.2-2.1
	c3.6,0,7,0.7,10.2,2.1c3.1,1.4,5.9,3.2,8.2,5.5c2.3,2.3,4.2,5.1,5.5,8.2c1.4,3.1,2.1,6.5,2.1,10.2s-0.7,7-2.1,10.2
	c-1.4,3.1-3.2,5.9-5.5,8.2c-2.3,2.3-5.1,4.2-8.2,5.5s-6.5,2.1-10.2,2.1c-3.6,0-7-0.7-10.2-2.1s-5.9-3.2-8.3-5.5
	c-2.4-2.3-4.2-5.1-5.6-8.2C131.5,69,130.8,65.6,130.8,62z M141.8,62c0,2,0.4,4,1.2,5.8c0.8,1.8,1.9,3.4,3.2,4.7
	c1.3,1.3,2.9,2.4,4.7,3.2c1.8,0.8,3.7,1.2,5.8,1.2s4-0.4,5.8-1.2c1.8-0.8,3.4-1.9,4.7-3.2s2.4-2.9,3.2-4.7c0.8-1.8,1.2-3.7,1.2-5.8
	c0-2-0.4-4-1.2-5.8c-0.8-1.8-1.9-3.4-3.2-4.7c-1.3-1.3-2.9-2.4-4.7-3.2c-1.8-0.8-3.7-1.2-5.8-1.2s-4,0.4-5.8,1.2
	c-1.8,0.8-3.4,1.9-4.7,3.2c-1.3,1.3-2.4,2.9-3.2,4.7S141.8,60,141.8,62z"/>
<path class="st0" d="M186.3,62c0-3.6,0.7-7,2.1-10.2c1.4-3.1,3.2-5.9,5.6-8.2c2.4-2.3,5.1-4.2,8.3-5.5c3.1-1.4,6.5-2.1,10.2-2.1
	c3.6,0,7,0.7,10.2,2.1c3.1,1.4,5.9,3.2,8.2,5.5c2.3,2.3,4.2,5.1,5.5,8.2c1.4,3.1,2.1,6.5,2.1,10.2s-0.7,7-2.1,10.2
	c-1.4,3.1-3.2,5.9-5.5,8.2c-2.3,2.3-5.1,4.2-8.2,5.5s-6.5,2.1-10.2,2.1c-3.6,0-7-0.7-10.2-2.1s-5.9-3.2-8.3-5.5
	c-2.4-2.3-4.2-5.1-5.6-8.2C187,69,186.3,65.6,186.3,62z M197.4,62c0,2,0.4,4,1.2,5.8c0.8,1.8,1.9,3.4,3.2,4.7s2.9,2.4,4.7,3.2
	c1.8,0.8,3.7,1.2,5.8,1.2c2,0,4-0.4,5.8-1.2c1.8-0.8,3.4-1.9,4.7-3.2c1.3-1.3,2.4-2.9,3.2-4.7c0.8-1.8,1.2-3.7,1.2-5.8
	c0-2-0.4-4-1.2-5.8s-1.9-3.4-3.2-4.7c-1.3-1.3-2.9-2.4-4.7-3.2c-1.8-0.8-3.7-1.2-5.8-1.2c-2,0-4,0.4-5.8,1.2
	c-1.8,0.8-3.4,1.9-4.7,3.2c-1.3,1.3-2.4,2.9-3.2,4.7C197.8,58,197.4,60,197.4,62z"/>
<path class="st0" d="M234.2,38.2h12.1l13.6,31.3l13.6-31.3h12.1l-20.8,47.7h-9.8L234.2,38.2z"/>
<path class="st0" d="M288.3,49.3V38.2h4.4V21.2h11.1v17.1h11.2v11.1h-11.2v36.6h-11.1V49.3H288.3z"/>
<path class="st0" d="M314.4,62c0-3.6,0.7-7,2.1-10.2c1.4-3.1,3.2-5.9,5.6-8.2c2.4-2.3,5.1-4.2,8.3-5.5c3.1-1.4,6.5-2.1,10.2-2.1
	c3.6,0,7,0.7,10.2,2.1c3.1,1.4,5.9,3.2,8.2,5.5c2.3,2.3,4.2,5.1,5.5,8.2c1.4,3.1,2.1,6.5,2.1,10.2s-0.7,7-2.1,10.2
	c-1.4,3.1-3.2,5.9-5.5,8.2c-2.3,2.3-5.1,4.2-8.2,5.5s-6.5,2.1-10.2,2.1c-3.6,0-7-0.7-10.2-2.1s-5.9-3.2-8.3-5.5
	c-2.4-2.3-4.2-5.1-5.6-8.2C315.1,69,314.4,65.6,314.4,62z M325.5,62c0,2,0.4,4,1.2,5.8c0.8,1.8,1.9,3.4,3.2,4.7s2.9,2.4,4.7,3.2
	c1.8,0.8,3.7,1.2,5.8,1.2c2,0,4-0.4,5.8-1.2c1.8-0.8,3.4-1.9,4.7-3.2c1.3-1.3,2.4-2.9,3.2-4.7c0.8-1.8,1.2-3.7,1.2-5.8
	c0-2-0.4-4-1.2-5.8c-0.8-1.8-1.9-3.4-3.2-4.7c-1.3-1.3-2.9-2.4-4.7-3.2c-1.8-0.8-3.7-1.2-5.8-1.2c-2,0-4,0.4-5.8,1.2
	c-1.8,0.8-3.4,1.9-4.7,3.2c-1.3,1.3-2.4,2.9-3.2,4.7C325.9,58,325.5,60,325.5,62z"/>
<path class="st1" d="M381.6,84.9L381.6,84.9l4.8,4.8c0,0,0,0,0.1,0.1l0,0v0c0,0,0,0,0,0v0c0.1,0.1,0.7,0.7,5.3,5.3l3.7,3.8l5.1-5.1
	c2.5-2.5,3.1-3.1,3.7-3.7l1.9-1.9c0.7-0.7,1.4-1.4,2.1-2.1l1.1-1.1l0,0l0.3-0.3l-7.4-7.5l-0.1,0.1l0,0l-1.3,1.3
	c-0.7,0.7-1.3,1.3-2,2c-0.7,0.7-1.3,1.3-2,2l-1.4,1.4c-0.4-0.4-1.1-1.1-1.9-1.9l-4.6-4.6l0,0l-0.3-0.3l-7.4,7.5L381.6,84.9z"/>
<path class="st0" d="M377.1,80.5l0.5,0.5l7.4-7.5l-0.5-0.5c-1.4-1.4-2.6-3.2-3.3-5c-0.8-1.9-1.1-3.9-1.1-5.9c0-4.1,1.6-8,4.5-10.9
	c2.9-2.9,6.8-4.5,10.9-4.5c4.1,0,8,1.6,10.9,4.5c2.9,2.9,4.5,6.8,4.5,10.9c0,2.1-0.4,4-1.1,5.9c-0.7,1.9-1.8,3.5-3.3,5
	c-0.2,0.2-0.4,0.4-0.6,0.6l7.4,7.5c0.2-0.2,0.4-0.5,0.7-0.7c2.4-2.4,4.2-5.3,5.5-8.4c1.3-3.1,1.9-6.4,1.9-9.8
	c0-6.9-2.7-13.5-7.6-18.4c-4.9-4.9-11.4-7.6-18.4-7.6c-6.9,0-13.5,2.7-18.4,7.6c-4.9,4.9-7.6,11.5-7.6,18.4c0,3.4,0.7,6.8,2,9.9
	C372.9,75.2,374.7,78,377.1,80.5z"/>
</svg>
