<?xml version="1.0" encoding="utf-8"?>
<!-- Generator: Adobe Illustrator 22.1.0, SVG Export Plug-In . SVG Version: 6.00 Build 0)  -->
<svg version="1.1" id="Layer_1" xmlns="http://www.w3.org/2000/svg" xmlns:xlink="http://www.w3.org/1999/xlink" x="0px" y="0px"
	 viewBox="0 0 85 86.4" style="enable-background:new 0 0 85 86.4;" xml:space="preserve">
<style type="text/css">
	.st0{fill:#FF9100;}
	.st1{fill:#FFFFFF;}
</style>
<circle class="st0" cx="43.5" cy="42.4" r="37.8"/>
<path class="st1" d="M61.9,39.8l-11.3-9.5c-0.8-0.6-1.5-0.8-1.9-0.8c-1.3,0-2.5,1-2.5,2.9v9.1H24.7c-0.4,0-0.8,0.4-0.8,0.8
	c0,0.4,0.4,0.8,0.8,0.8h21.4v9.1c0,1.9,1.3,2.9,2.5,2.9c0.5,0,1.2-0.1,1.9-0.8l11.3-9.5c0.8-0.7,1.2-1.6,1.2-2.6
	C63.1,41.4,62.7,40.5,61.9,39.8z M60.9,43.7l-11.3,9.5c-0.4,0.3-0.7,0.4-0.9,0.4c-0.4,0-1-0.3-1-1.3V32.5c0-0.9,0.5-1.3,1-1.3
	c0.2,0,0.5,0.1,0.9,0.4L60.9,41c0.4,0.4,0.7,0.8,0.7,1.4C61.5,42.9,61.3,43.4,60.9,43.7z"/>
</svg>
