<?xml version="1.0" encoding="utf-8"?>
<!-- Generator: Adobe Illustrator 22.1.0, SVG Export Plug-In . SVG Version: 6.00 Build 0)  -->
<svg version="1.1" id="Layer_1" xmlns="http://www.w3.org/2000/svg" xmlns:xlink="http://www.w3.org/1999/xlink" x="0px" y="0px"
	 viewBox="0 0 67.5 82.5" style="enable-background:new 0 0 67.5 82.5;" xml:space="preserve">
<style type="text/css">
	.st0{fill:#1D283D;}
</style>
<path class="st0" d="M33.7,16.3C20,16.3,8.8,27.5,8.8,41.2S20,66.2,33.7,66.2S58.7,55,58.7,41.2S47.5,16.3,33.7,16.3z M33.7,64.2
	c-12.6,0-22.9-10.3-22.9-22.9c0-12.6,10.3-22.9,22.9-22.9c12.6,0,22.9,10.3,22.9,22.9C56.7,53.9,46.4,64.2,33.7,64.2z M46.8,52.2
	c0.6,0.6,0.6,1.5,0,2.1c-0.6,0.6-1.5,0.6-2.1,0L34,43.7c-0.1,0-0.2,0-0.2,0c-1.3,0-2.4-1.1-2.4-2.4c0-0.8,0.4-1.5,0.9-1.9V27.7
	c0-0.8,0.7-1.5,1.5-1.5c0.8,0,1.5,0.7,1.5,1.5v11.7c0.6,0.4,0.9,1.1,0.9,1.9c0,0.1,0,0.2,0,0.3L46.8,52.2z"/>
</svg>
